{
    "results": {
        "pageSize": 10,
        "pageNo": 1,
        "totalCount": 523,
        "totalPage": 33,
        "data": [
            {
                "id": "10001",
                "no": "No 1",
                "key": 1,
                "name": "强阿强",
                "sex": "M",
                "age": "21",
                "healthRate": "A",
                "report": "proident culpa esse quis elit",
                "status": 0
            },
            {
                "id": "10002",
                "no": "No 2",
                "key": 1,
                "name": "强阿强",
                "sex": "M",
                "age": "21",
                "healthRate": "A",
                "report": "proident culpa esse quis elit",
                "status": 0
            },
            {
                "id": "10003",
                "no": "No 3",
                "key": 1,
                "name": "强阿强",
                "sex": "M",
                "age": "21",
                "healthRate": "A",
                "report": "proident culpa esse quis elit",
                "status": 0
            },
            {
                "id": "10004",
                "no": "No 4",
                "key": 1,
                "name": "强阿强",
                "sex": "M",
                "age": "21",
                "healthRate": "A",
                "report": "proident culpa esse quis elit",
                "status": 0
            },
            {
                "id": "10005",
                "no": "No 5",
                "key": 1,
                "name": "强阿强",
                "sex": "M",
                "age": "21",
                "healthRate": "A",
                "report": "proident culpa esse quis elit",
                "status": 0
            },
            {
                "id": "10006",
                "no": "No 6",
                "key": 1,
                "name": "强阿强",
                "sex": "M",
                "age": "21",
                "healthRate": "A",
                "report": "proident culpa esse quis elit",
                "status": 0
            },
            {
                "id": "10007",
                "no": "No 7",
                "key": 1,
                "name": "强阿强",
                "sex": "M",
                "age": "21",
                "healthRate": "A",
                "report": "proident culpa esse quis elit",
                "status": 0
            },
            {
                "id": "10008",
                "no": "No 8",
                "key": 1,
                "name": "强阿强",
                "sex": "M",
                "age": "21",
                "healthRate": "A",
                "report": "proident culpa esse quis elit",
                "status": 0
            },
            {
                "id": "10009",
                "no": "No 9",
                "key": 1,
                "name": "强阿强",
                "sex": "M",
                "age": "21",
                "healthRate": "A",
                "report": "proident culpa esse quis elit",
                "status": 0
            },
            {
                "id": "100010",
                "no": "No 10",
                "key": 1,
                "name": "强阿强",
                "sex": "M",
                "age": "21",
                "healthRate": "A",
                "report": "proident culpa esse quis elit",
                "status": 0
            }
        ]
    }
}