{
    "pageSize": 10,
    "pageNo": 3,
    "totalCount": 523,
    "totalPage": 33,
    "data": [
        {
            "0": {
                "id": "10001",
                "no": "No 1",
                "key": 1,
                "name": "强阿强",
                "sex": "M",
                "age": "21",
                "healthRate": "A",
                "report": "proident culpa esse quis elit",
                "status": 0
            }
        },
        {
            "0": {
                "id": "10001",
                "no": "No 1",
                "key": 1,
                "name": "强阿强",
                "sex": "M",
                "age": "21",
                "healthRate": "A",
                "report": "proident culpa esse quis elit",
                "status": 0
            }
        },
        {
            "0": {
                "id": "10001",
                "no": "No 1",
                "key": 1,
                "name": "强阿强",
                "sex": "M",
                "age": "21",
                "healthRate": "A",
                "report": "proident culpa esse quis elit",
                "status": 0
            }
        }
    ]
}









"0": {
    "id": "10001",
    "no": "No 1",
    "key": 1,
    "name": "强阿强",
    "sex": "M",
    "age": "21",
    "healthRate": "A",
    "report": "proident culpa esse quis elit",
    "status": 0
},
"1": {
    "id": "10002",
    "no": "No 2",
    "key": 1,
    "name": "强阿强",
    "sex": "M",
    "age": "21",
    "healthRate": "A",
    "report": "proident culpa esse quis elit",
    "status": 0
},
"2": {
    "id": "10003",
    "no": "No 3",
    "key": 1,
    "name": "强阿强",
    "sex": "M",
    "age": "21",
    "healthRate": "A",
    "report": "proident culpa esse quis elit",
    "status": 0
},
"3": {
    "id": "10004",
    "no": "No 4",
    "key": 1,
    "name": "强阿强",
    "sex": "M",
    "age": "21",
    "healthRate": "A",
    "report": "proident culpa esse quis elit",
    "status": 0
},
"4": {
    "id": "10005",
    "no": "No 5",
    "key": 1,
    "name": "强阿强",
    "sex": "M",
    "age": "21",
    "healthRate": "A",
    "report": "proident culpa esse quis elit",
    "status": 0
},
"5": {
    "id": "10006",
    "no": "No 6",
    "key": 1,
    "name": "强阿强",
    "sex": "M",
    "age": "21",
    "healthRate": "A",
    "report": "proident culpa esse quis elit",
    "status": 0
},
"6": {
    "id": "10007",
    "no": "No 7",
    "key": 1,
    "name": "强阿强",
    "sex": "M",
    "age": "21",
    "healthRate": "A",
    "report": "proident culpa esse quis elit",
    "status": 0
},
"7": {
    "id": "10008",
    "no": "No 8",
    "key": 1,
    "name": "强阿强",
    "sex": "M",
    "age": "21",
    "healthRate": "A",
    "report": "proident culpa esse quis elit",
    "status": 0
},
"8": {
    "id": "10009",
    "no": "No 9",
    "key": 1,
    "name": "强阿强",
    "sex": "M",
    "age": "21",
    "healthRate": "A",
    "report": "proident culpa esse quis elit",
    "status": 0
},
"9": {
    "id": "100010",
    "no": "No 10",
    "key": 1,
    "name": "强阿强",
    "sex": "M",
    "age": "21",
    "healthRate": "A",
    "report": "proident culpa esse quis elit",
    "status": 0
},
"10": {
    "id": "100011",
    "no": "No 11",
    "key": 1,
    "name": "强阿强",
    "sex": "M",
    "age": "21",
    "healthRate": "A",
    "report": "proident culpa esse quis elit",
    "status": 0
},
"11": {
    "id": "100012",
    "no": "No 12",
    "key": 1,
    "name": "强阿强",
    "sex": "M",
    "age": "21",
    "healthRate": "A",
    "report": "proident culpa esse quis elit",
    "status": 0
},
"12": {
    "id": "100013",
    "no": "No 13",
    "key": 1,
    "name": "强阿强",
    "sex": "M",
    "age": "21",
    "healthRate": "A",
    "report": "proident culpa esse quis elit",
    "status": 0
},
"13": {
    "id": "100014",
    "no": "No 14",
    "key": 1,
    "name": "强阿强",
    "sex": "M",
    "age": "21",
    "healthRate": "A",
    "report": "proident culpa esse quis elit",
    "status": 0
},
"14": {
    "id": "100015",
    "no": "No 15",
    "key": 1,
    "name": "强阿强",
    "sex": "M",
    "age": "21",
    "healthRate": "A",
    "report": "proident culpa esse quis elit",
    "status": 0
}